module api-gateway

go 1.22

require (
	github.com/casbin/casbin/v2 v2.88.0
	github.com/dgrijalva/jwt-go v3.2.0+incompatible
	github.com/gin-contrib/cors v1.7.2
	github.com/gin-gonic/gin v1.9.1
	github.com/go-chi/render v1.0.3
	github.com/go-ozzo/ozzo-validation v3.6.0+incompatible
	github.com/go-playground/locales v0.14.1
	github.com/go-playground/universal-translator v0.18.1
	github.com/go-playground/validator/v10 v10.20.0
	github.com/go-redis/redis/v8 v8.11.5
	github.com/google/uuid v1.6.0
	github.com/k0kubun/pp v3.0.1+incompatible
	github.com/minio/minio-go/v7 v7.0.70
	github.com/spf13/cast v1.6.0
	github.com/swaggo/files v1.0.1
	github.com/swaggo/gin-swagger v1.6.0
	github.com/swaggo/swag v1.16.3
	go.opentelemetry.io/contrib/instrumentation/google.golang.org/grpc/otelgrpc v0.42.0
	go.opentelemetry.io/otel v1.16.0
	go.opentelemetry.io/otel/exporters/otlp/otlptrace v1.16.0
	go.opentelemetry.io/otel/exporters/otlp/otlptrace/otlptracegrpc v1.16.0
	go.opentelemetry.io/otel/sdk v1.16.0
	go.opentelemetry.io/otel/trace v1.16.0
	go.uber.org/zap v1.27.0
	golang.org/x/crypto v0.22.0
	google.golang.org/genproto/googleapis/rpc v0.0.0-20240429193739-8cf5692501f6
	google.golang.org/grpc v1.63.2
	google.golang.org/protobuf v1.34.0
)

require (
	github.com/KyleBanks/depth v1.2.1 // indirect
	github.com/PuerkitoBio/purell v1.1.1 // indirect
	github.com/PuerkitoBio/urlesc v0.0.0-20170810143723-de5bf2ad4578 // indirect
	github.com/ajg/form v1.5.1 // indirect
	github.com/asaskevich/govalidator v0.0.0-20230301143203-a9d515a09cc2 // indirect
	github.com/bytedance/sonic v1.11.6 // indirect
	github.com/bytedance/sonic/loader v0.1.1 // indirect
	github.com/casbin/govaluate v1.1.0 // indirect
	github.com/cenkalti/backoff/v4 v4.3.0 // indirect
	github.com/cespare/xxhash/v2 v2.2.0 // indirect
	github.com/cloudwego/base64x v0.1.4 // indirect
	github.com/cloudwego/iasm v0.2.0 // indirect
	github.com/dgryski/go-rendezvous v0.0.0-20200823014737-9f7001d12a5f // indirect
	github.com/dustin/go-humanize v1.0.1 // indirect
	github.com/gabriel-vasile/mimetype v1.4.3 // indirect
	github.com/gin-contrib/sse v0.1.0 // indirect
	github.com/go-logr/logr v1.4.1 // indirect
	github.com/go-logr/stdr v1.2.2 // indirect
	github.com/go-openapi/jsonpointer v0.19.5 // indirect
	github.com/go-openapi/jsonreference v0.19.6 // indirect
	github.com/go-openapi/spec v0.20.4 // indirect
	github.com/go-openapi/swag v0.19.15 // indirect
	github.com/goccy/go-json v0.10.2 // indirect
	github.com/grpc-ecosystem/grpc-gateway/v2 v2.19.1 // indirect
	github.com/josharian/intern v1.0.0 // indirect
	github.com/json-iterator/go v1.1.12 // indirect
	github.com/k0kubun/colorstring v0.0.0-20150214042306-9440f1994b88 // indirect
	github.com/klauspost/compress v1.17.6 // indirect
	github.com/klauspost/cpuid/v2 v2.2.7 // indirect
	github.com/leodido/go-urn v1.4.0 // indirect
	github.com/mailru/easyjson v0.7.6 // indirect
	github.com/mattn/go-colorable v0.1.13 // indirect
	github.com/mattn/go-isatty v0.0.20 // indirect
	github.com/minio/md5-simd v1.1.2 // indirect
	github.com/modern-go/concurrent v0.0.0-20180306012644-bacd9c7ef1dd // indirect
	github.com/modern-go/reflect2 v1.0.2 // indirect
	github.com/pelletier/go-toml/v2 v2.2.1 // indirect
	github.com/rs/xid v1.5.0 // indirect
	github.com/twitchyliquid64/golang-asm v0.15.1 // indirect
	github.com/ugorji/go/codec v1.2.12 // indirect
	go.opentelemetry.io/otel/exporters/otlp/internal/retry v1.16.0 // indirect
	go.opentelemetry.io/otel/metric v1.16.0 // indirect
	go.opentelemetry.io/proto/otlp v1.2.0 // indirect
	go.uber.org/multierr v1.10.0 // indirect
	golang.org/x/arch v0.7.0 // indirect
	golang.org/x/net v0.24.0 // indirect
	golang.org/x/sys v0.19.0 // indirect
	golang.org/x/text v0.14.0 // indirect
	golang.org/x/tools v0.7.0 // indirect
	google.golang.org/genproto/googleapis/api v0.0.0-20240227224415-6ceb2ff114de // indirect
	gopkg.in/ini.v1 v1.67.0 // indirect
	gopkg.in/yaml.v2 v2.4.0 // indirect
	gopkg.in/yaml.v3 v3.0.1 // indirect
)
